^C:\USERS\SHAMAL\DOCUMENTS\VISUAL STUDIO 2010\PROJECTS\BARCHART\BARCHART\PROPERTIES\RESOURCES.RESX
C:\USERS\SHAMAL\DOCUMENTS\VISUAL STUDIO 2010\PROJECTS\BARCHART\BARCHART\OBJ\X86\DEBUG\BARCHART.PROPERTIES.RESOURCES.RESOURCES
^I:\BARCHART\BARCHART\PROPERTIES\RESOURCES.RESX
I:\BARCHART\BARCHART\OBJ\X86\DEBUG\BARCHART.PROPERTIES.RESOURCES.RESOURCES
^C:\USERS\DZN\DESKTOP\OCR\BARCHART\BARCHART\PROPERTIES\RESOURCES.RESX
C:\USERS\DZN\DESKTOP\OCR\BARCHART\BARCHART\OBJ\X86\DEBUG\BARCHART.PROPERTIES.RESOURCES.RESOURCES
